…
    ## [1] "./V20140101.xml" "./V20140102.xml" "./V20140113.xml"

``` r
df<-read_xml(xml_files[1])

as_tibble(df)
```

    ## # A tibble: 109,703 × 30
    ##    data_arq   Categoria.data_mov Empresa.Tipo Veiculo.Codigo Veiculo.modalidade
    ##    <chr>      <chr>              <chr>        <chr>          <chr>             
    ##  1 2021-12-26 2021-12-22         1            021            1                 
    ##  2 2021-12-26 2021-12-22         1            021            1                 
    ##  3 2021-12-26 2021-12-22         1            021            1                 
    ##  4 2021-12-26 2021-12-22         1            021            1                 
    ##  5 2021-12-26 2021-12-22         1            021            1                 
    ##  6 2021-12-26 2021-12-22         1            021            1                 
    ##  7 2021-12-26 2021-12-22         1            021            1                 
    ##  8 2021-12-26 2021-12-22         1            021            1                 
    ##  9 2021-12-26 2021-12-22         1            021            1                 
    ## 10 2021-12-26 2021-12-22         1            021            1                 
    ## # ℹ 109,693 more rows
    ## # ℹ 25 more variables: Linha.Numero <chr>, Linha.validador <chr>,
    ## #   Viagem.Numero <chr>, Viagem.jornada <chr>, Viagem.num_operador <chr>,
    ## #   Viagem.tabela <chr>, Viagem.hora_abertura <chr>,
    ## #   Viagem.hora_fechamento <chr>, Passageiro.data_hora_abertura <chr>,
    ## #   Passageiro.data_hora_fechamento <chr>, Passageiro.catraca_inicio <chr>,
    ## #   Passageiro.catraca_final <chr>, Passageiro.sentido <chr>, …
…
